{
  "name": "cryptomancer",
  "title": "Cryptomancer",
  "description": "The Cryptomancer system for FoundryVTT!",
  "version": "0.0.1",
  "minimumCoreVersion": "0.7.5",
  "compatibleCoreVersion": "0.7.9",
  "templateVersion": 2,
  "author": "Sorrel Napalm",
  "esmodules": ["module/cryptomancer.js"],
  "styles": ["css/cryptomancer.css"],
  "scripts": [],
  "packs": [],
  "languages": [
    {
      "lang": "en",
      "name": "English",
      "path": "lang/en.json"
    }
  ],
  "gridDistance": 5,
  "gridUnits": "ft",
  "primaryTokenAttribute": "health",
  "secondaryTokenAttribute": "power",
  "url": "https://gitlab.com/sorrelnapalm/cryptomancer-foundry-vtt",
  "manifest": "https://gitlab.com/sorrelnapalm/cryptomancer-foundry-vtt/-/raw/main/system.json",
  "download": "https://gitlab.com/sorrelnapalm/cryptomancer-foundry-vtt/-/archive/main/cryptomancer-foundry-vtt-main.zip",
  "license": "LICENSE.txt"
}
